{
  "idle": {
    "frames": [
      26
    ],
    "frame_secs": 0.250
  },
  "walk": {
    "frames": [
      27,
      28,
      29,
      30,
      31,
      32
    ],
    "frame_secs": 0.100
  },
  "jump": {
    "frames": [
      34
    ],
    "frame_secs": 0.250
  },
  "climb": {
    "frames": [
      44,
      45,
      46,
      47
    ],
    "frame_secs": 0.250
  },
  "crouch": {
    "frames": [
      33
    ],
    "frame_secs": 0.250
  },
  "fall": {
    "frames": [
      50
    ],
    "frame_secs": 0.250
  },
  "rise": {
    "frames": [
      33
    ],
    "frame_secs": 0.250
  },
  "die": {
    "frames": [
      7
    ],
    "frame_secs": 0.250
  },
  "shoot": {
    "frames": [
      36,
      37
    ],
    "frame_secs": 0.150
  },
  "shoot_crouched": {
    "frames": [
      38,
      39
    ],
    "frame_secs": 0.150
  }
}